<?xml version="1.0" encoding="utf-8"?>
<!-- Generator: Adobe Illustrator 21.0.0, SVG Export Plug-In . SVG Version: 6.00 Build 0)  -->
<svg version="1.1" id="Layer_1" xmlns="http://www.w3.org/2000/svg" xmlns:xlink="http://www.w3.org/1999/xlink" x="0px" y="0px"
	 viewBox="0 0 25 25" style="enable-background:new 0 0 25 25;" xml:space="preserve">
<rect width="1" height="1"/>
<rect x="1" width="1" height="1"/>
<rect x="2" width="1" height="1"/>
<rect x="3" width="1" height="1"/>
<rect x="4" width="1" height="1"/>
<rect x="5" width="1" height="1"/>
<rect x="6" width="1" height="1"/>
<rect x="9" width="1" height="1"/>
<rect x="16" width="1" height="1"/>
<rect x="18" width="1" height="1"/>
<rect x="19" width="1" height="1"/>
<rect x="20" width="1" height="1"/>
<rect x="21" width="1" height="1"/>
<rect x="22" width="1" height="1"/>
<rect x="23" width="1" height="1"/>
<rect x="24" width="1" height="1"/>
<rect y="1" width="1" height="1"/>
<rect x="6" y="1" width="1" height="1"/>
<rect x="8" y="1" width="1" height="1"/>
<rect x="9" y="1" width="1" height="1"/>
<rect x="11" y="1" width="1" height="1"/>
<rect x="12" y="1" width="1" height="1"/>
<rect x="15" y="1" width="1" height="1"/>
<rect x="18" y="1" width="1" height="1"/>
<rect x="24" y="1" width="1" height="1"/>
<rect y="2" width="1" height="1"/>
<rect x="2" y="2" width="1" height="1"/>
<rect x="3" y="2" width="1" height="1"/>
<rect x="4" y="2" width="1" height="1"/>
<rect x="6" y="2" width="1" height="1"/>
<rect x="9" y="2" width="1" height="1"/>
<rect x="10" y="2" width="1" height="1"/>
<rect x="11" y="2" width="1" height="1"/>
<rect x="14" y="2" width="1" height="1"/>
<rect x="18" y="2" width="1" height="1"/>
<rect x="20" y="2" width="1" height="1"/>
<rect x="21" y="2" width="1" height="1"/>
<rect x="22" y="2" width="1" height="1"/>
<rect x="24" y="2" width="1" height="1"/>
<rect y="3" width="1" height="1"/>
<rect x="2" y="3" width="1" height="1"/>
<rect x="3" y="3" width="1" height="1"/>
<rect x="4" y="3" width="1" height="1"/>
<rect x="6" y="3" width="1" height="1"/>
<rect x="8" y="3" width="1" height="1"/>
<rect x="9" y="3" width="1" height="1"/>
<rect x="11" y="3" width="1" height="1"/>
<rect x="13" y="3" width="1" height="1"/>
<rect x="14" y="3" width="1" height="1"/>
<rect x="15" y="3" width="1" height="1"/>
<rect x="18" y="3" width="1" height="1"/>
<rect x="20" y="3" width="1" height="1"/>
<rect x="21" y="3" width="1" height="1"/>
<rect x="22" y="3" width="1" height="1"/>
<rect x="24" y="3" width="1" height="1"/>
<rect y="4" width="1" height="1"/>
<rect x="2" y="4" width="1" height="1"/>
<rect x="3" y="4" width="1" height="1"/>
<rect x="4" y="4" width="1" height="1"/>
<rect x="6" y="4" width="1" height="1"/>
<rect x="10" y="4" width="1" height="1"/>
<rect x="12" y="4" width="1" height="1"/>
<rect x="14" y="4" width="1" height="1"/>
<rect x="16" y="4" width="1" height="1"/>
<rect x="18" y="4" width="1" height="1"/>
<rect x="20" y="4" width="1" height="1"/>
<rect x="21" y="4" width="1" height="1"/>
<rect x="22" y="4" width="1" height="1"/>
<rect x="24" y="4" width="1" height="1"/>
<rect y="5" width="1" height="1"/>
<rect x="6" y="5" width="1" height="1"/>
<rect x="8" y="5" width="1" height="1"/>
<rect x="10" y="5" width="1" height="1"/>
<rect x="13" y="5" width="1" height="1"/>
<rect x="14" y="5" width="1" height="1"/>
<rect x="15" y="5" width="1" height="1"/>
<rect x="16" y="5" width="1" height="1"/>
<rect x="18" y="5" width="1" height="1"/>
<rect x="24" y="5" width="1" height="1"/>
<rect y="6" width="1" height="1"/>
<rect x="1" y="6" width="1" height="1"/>
<rect x="2" y="6" width="1" height="1"/>
<rect x="3" y="6" width="1" height="1"/>
<rect x="4" y="6" width="1" height="1"/>
<rect x="5" y="6" width="1" height="1"/>
<rect x="6" y="6" width="1" height="1"/>
<rect x="8" y="6" width="1" height="1"/>
<rect x="10" y="6" width="1" height="1"/>
<rect x="12" y="6" width="1" height="1"/>
<rect x="14" y="6" width="1" height="1"/>
<rect x="16" y="6" width="1" height="1"/>
<rect x="18" y="6" width="1" height="1"/>
<rect x="19" y="6" width="1" height="1"/>
<rect x="20" y="6" width="1" height="1"/>
<rect x="21" y="6" width="1" height="1"/>
<rect x="22" y="6" width="1" height="1"/>
<rect x="23" y="6" width="1" height="1"/>
<rect x="24" y="6" width="1" height="1"/>
<rect x="12" y="7" width="1" height="1"/>
<rect x="14" y="7" width="1" height="1"/>
<rect x="16" y="7" width="1" height="1"/>
<rect y="8" width="1" height="1"/>
<rect x="1" y="8" width="1" height="1"/>
<rect x="2" y="8" width="1" height="1"/>
<rect x="3" y="8" width="1" height="1"/>
<rect x="4" y="8" width="1" height="1"/>
<rect x="6" y="8" width="1" height="1"/>
<rect x="7" y="8" width="1" height="1"/>
<rect x="8" y="8" width="1" height="1"/>
<rect x="9" y="8" width="1" height="1"/>
<rect x="10" y="8" width="1" height="1"/>
<rect x="12" y="8" width="1" height="1"/>
<rect x="13" y="8" width="1" height="1"/>
<rect x="17" y="8" width="1" height="1"/>
<rect x="19" y="8" width="1" height="1"/>
<rect x="21" y="8" width="1" height="1"/>
<rect x="23" y="8" width="1" height="1"/>
<rect x="1" y="9" width="1" height="1"/>
<rect x="2" y="9" width="1" height="1"/>
<rect x="3" y="9" width="1" height="1"/>
<rect x="5" y="9" width="1" height="1"/>
<rect x="9" y="9" width="1" height="1"/>
<rect x="14" y="9" width="1" height="1"/>
<rect x="19" y="9" width="1" height="1"/>
<rect x="23" y="9" width="1" height="1"/>
<rect y="10" width="1" height="1"/>
<rect x="2" y="10" width="1" height="1"/>
<rect x="3" y="10" width="1" height="1"/>
<rect x="5" y="10" width="1" height="1"/>
<rect x="6" y="10" width="1" height="1"/>
<rect x="8" y="10" width="1" height="1"/>
<rect x="9" y="10" width="1" height="1"/>
<rect x="11" y="10" width="1" height="1"/>
<rect x="12" y="10" width="1" height="1"/>
<rect x="15" y="10" width="1" height="1"/>
<rect x="16" y="10" width="1" height="1"/>
<rect x="17" y="10" width="1" height="1"/>
<rect x="18" y="10" width="1" height="1"/>
<rect x="20" y="10" width="1" height="1"/>
<rect x="21" y="10" width="1" height="1"/>
<rect x="23" y="10" width="1" height="1"/>
<rect x="24" y="10" width="1" height="1"/>
<rect x="1" y="11" width="1" height="1"/>
<rect x="2" y="11" width="1" height="1"/>
<rect x="3" y="11" width="1" height="1"/>
<rect x="5" y="11" width="1" height="1"/>
<rect x="8" y="11" width="1" height="1"/>
<rect x="9" y="11" width="1" height="1"/>
<rect x="10" y="11" width="1" height="1"/>
<rect x="11" y="11" width="1" height="1"/>
<rect x="14" y="11" width="1" height="1"/>
<rect x="15" y="11" width="1" height="1"/>
<rect x="16" y="11" width="1" height="1"/>
<rect x="17" y="11" width="1" height="1"/>
<rect x="18" y="11" width="1" height="1"/>
<rect x="19" y="11" width="1" height="1"/>
<rect x="20" y="11" width="1" height="1"/>
<rect x="24" y="11" width="1" height="1"/>
<rect y="12" width="1" height="1"/>
<rect x="1" y="12" width="1" height="1"/>
<rect x="3" y="12" width="1" height="1"/>
<rect x="4" y="12" width="1" height="1"/>
<rect x="5" y="12" width="1" height="1"/>
<rect x="6" y="12" width="1" height="1"/>
<rect x="7" y="12" width="1" height="1"/>
<rect x="8" y="12" width="1" height="1"/>
<rect x="9" y="12" width="1" height="1"/>
<rect x="11" y="12" width="1" height="1"/>
<rect x="13" y="12" width="1" height="1"/>
<rect x="15" y="12" width="1" height="1"/>
<rect x="17" y="12" width="1" height="1"/>
<rect x="18" y="12" width="1" height="1"/>
<rect x="20" y="12" width="1" height="1"/>
<rect x="22" y="12" width="1" height="1"/>
<rect x="23" y="12" width="1" height="1"/>
<rect x="24" y="12" width="1" height="1"/>
<rect y="13" width="1" height="1"/>
<rect x="2" y="13" width="1" height="1"/>
<rect x="3" y="13" width="1" height="1"/>
<rect x="4" y="13" width="1" height="1"/>
<rect x="5" y="13" width="1" height="1"/>
<rect x="8" y="13" width="1" height="1"/>
<rect x="9" y="13" width="1" height="1"/>
<rect x="10" y="13" width="1" height="1"/>
<rect x="12" y="13" width="1" height="1"/>
<rect x="13" y="13" width="1" height="1"/>
<rect x="14" y="13" width="1" height="1"/>
<rect x="16" y="13" width="1" height="1"/>
<rect x="21" y="13" width="1" height="1"/>
<rect x="23" y="13" width="1" height="1"/>
<rect y="14" width="1" height="1"/>
<rect x="2" y="14" width="1" height="1"/>
<rect x="3" y="14" width="1" height="1"/>
<rect x="4" y="14" width="1" height="1"/>
<rect x="5" y="14" width="1" height="1"/>
<rect x="6" y="14" width="1" height="1"/>
<rect x="10" y="14" width="1" height="1"/>
<rect x="15" y="14" width="1" height="1"/>
<rect x="16" y="14" width="1" height="1"/>
<rect x="18" y="14" width="1" height="1"/>
<rect x="21" y="14" width="1" height="1"/>
<rect x="23" y="14" width="1" height="1"/>
<rect x="24" y="14" width="1" height="1"/>
<rect y="15" width="1" height="1"/>
<rect x="5" y="15" width="1" height="1"/>
<rect x="7" y="15" width="1" height="1"/>
<rect x="8" y="15" width="1" height="1"/>
<rect x="9" y="15" width="1" height="1"/>
<rect x="12" y="15" width="1" height="1"/>
<rect x="15" y="15" width="1" height="1"/>
<rect x="16" y="15" width="1" height="1"/>
<rect x="17" y="15" width="1" height="1"/>
<rect x="18" y="15" width="1" height="1"/>
<rect x="19" y="15" width="1" height="1"/>
<rect x="20" y="15" width="1" height="1"/>
<rect x="21" y="15" width="1" height="1"/>
<rect x="24" y="15" width="1" height="1"/>
<rect y="16" width="1" height="1"/>
<rect x="2" y="16" width="1" height="1"/>
<rect x="3" y="16" width="1" height="1"/>
<rect x="4" y="16" width="1" height="1"/>
<rect x="6" y="16" width="1" height="1"/>
<rect x="8" y="16" width="1" height="1"/>
<rect x="12" y="16" width="1" height="1"/>
<rect x="13" y="16" width="1" height="1"/>
<rect x="16" y="16" width="1" height="1"/>
<rect x="17" y="16" width="1" height="1"/>
<rect x="18" y="16" width="1" height="1"/>
<rect x="19" y="16" width="1" height="1"/>
<rect x="20" y="16" width="1" height="1"/>
<rect x="22" y="16" width="1" height="1"/>
<rect x="8" y="17" width="1" height="1"/>
<rect x="9" y="17" width="1" height="1"/>
<rect x="14" y="17" width="1" height="1"/>
<rect x="15" y="17" width="1" height="1"/>
<rect x="16" y="17" width="1" height="1"/>
<rect x="20" y="17" width="1" height="1"/>
<rect x="21" y="17" width="1" height="1"/>
<rect x="22" y="17" width="1" height="1"/>
<rect y="18" width="1" height="1"/>
<rect x="1" y="18" width="1" height="1"/>
<rect x="2" y="18" width="1" height="1"/>
<rect x="3" y="18" width="1" height="1"/>
<rect x="4" y="18" width="1" height="1"/>
<rect x="5" y="18" width="1" height="1"/>
<rect x="6" y="18" width="1" height="1"/>
<rect x="8" y="18" width="1" height="1"/>
<rect x="10" y="18" width="1" height="1"/>
<rect x="11" y="18" width="1" height="1"/>
<rect x="12" y="18" width="1" height="1"/>
<rect x="13" y="18" width="1" height="1"/>
<rect x="14" y="18" width="1" height="1"/>
<rect x="16" y="18" width="1" height="1"/>
<rect x="18" y="18" width="1" height="1"/>
<rect x="20" y="18" width="1" height="1"/>
<rect x="21" y="18" width="1" height="1"/>
<rect x="22" y="18" width="1" height="1"/>
<rect x="23" y="18" width="1" height="1"/>
<rect x="24" y="18" width="1" height="1"/>
<rect y="19" width="1" height="1"/>
<rect x="6" y="19" width="1" height="1"/>
<rect x="9" y="19" width="1" height="1"/>
<rect x="10" y="19" width="1" height="1"/>
<rect x="11" y="19" width="1" height="1"/>
<rect x="16" y="19" width="1" height="1"/>
<rect x="20" y="19" width="1" height="1"/>
<rect x="21" y="19" width="1" height="1"/>
<rect y="20" width="1" height="1"/>
<rect x="2" y="20" width="1" height="1"/>
<rect x="3" y="20" width="1" height="1"/>
<rect x="4" y="20" width="1" height="1"/>
<rect x="6" y="20" width="1" height="1"/>
<rect x="8" y="20" width="1" height="1"/>
<rect x="11" y="20" width="1" height="1"/>
<rect x="15" y="20" width="1" height="1"/>
<rect x="16" y="20" width="1" height="1"/>
<rect x="17" y="20" width="1" height="1"/>
<rect x="18" y="20" width="1" height="1"/>
<rect x="19" y="20" width="1" height="1"/>
<rect x="20" y="20" width="1" height="1"/>
<rect x="21" y="20" width="1" height="1"/>
<rect x="22" y="20" width="1" height="1"/>
<rect x="23" y="20" width="1" height="1"/>
<rect x="24" y="20" width="1" height="1"/>
<rect y="21" width="1" height="1"/>
<rect x="2" y="21" width="1" height="1"/>
<rect x="3" y="21" width="1" height="1"/>
<rect x="4" y="21" width="1" height="1"/>
<rect x="6" y="21" width="1" height="1"/>
<rect x="8" y="21" width="1" height="1"/>
<rect x="10" y="21" width="1" height="1"/>
<rect x="12" y="21" width="1" height="1"/>
<rect x="13" y="21" width="1" height="1"/>
<rect x="15" y="21" width="1" height="1"/>
<rect x="16" y="21" width="1" height="1"/>
<rect x="17" y="21" width="1" height="1"/>
<rect x="18" y="21" width="1" height="1"/>
<rect x="20" y="21" width="1" height="1"/>
<rect x="22" y="21" width="1" height="1"/>
<rect x="23" y="21" width="1" height="1"/>
<rect x="24" y="21" width="1" height="1"/>
<rect y="22" width="1" height="1"/>
<rect x="2" y="22" width="1" height="1"/>
<rect x="3" y="22" width="1" height="1"/>
<rect x="4" y="22" width="1" height="1"/>
<rect x="6" y="22" width="1" height="1"/>
<rect x="8" y="22" width="1" height="1"/>
<rect x="9" y="22" width="1" height="1"/>
<rect x="13" y="22" width="1" height="1"/>
<rect x="14" y="22" width="1" height="1"/>
<rect x="16" y="22" width="1" height="1"/>
<rect x="19" y="22" width="1" height="1"/>
<rect x="22" y="22" width="1" height="1"/>
<rect x="24" y="22" width="1" height="1"/>
<rect y="23" width="1" height="1"/>
<rect x="6" y="23" width="1" height="1"/>
<rect x="8" y="23" width="1" height="1"/>
<rect x="9" y="23" width="1" height="1"/>
<rect x="12" y="23" width="1" height="1"/>
<rect x="13" y="23" width="1" height="1"/>
<rect x="15" y="23" width="1" height="1"/>
<rect x="16" y="23" width="1" height="1"/>
<rect x="17" y="23" width="1" height="1"/>
<rect x="18" y="23" width="1" height="1"/>
<rect x="19" y="23" width="1" height="1"/>
<rect x="20" y="23" width="1" height="1"/>
<rect x="21" y="23" width="1" height="1"/>
<rect x="24" y="23" width="1" height="1"/>
<rect y="24" width="1" height="1"/>
<rect x="1" y="24" width="1" height="1"/>
<rect x="2" y="24" width="1" height="1"/>
<rect x="3" y="24" width="1" height="1"/>
<rect x="4" y="24" width="1" height="1"/>
<rect x="5" y="24" width="1" height="1"/>
<rect x="6" y="24" width="1" height="1"/>
<rect x="8" y="24" width="1" height="1"/>
<rect x="9" y="24" width="1" height="1"/>
<rect x="10" y="24" width="1" height="1"/>
<rect x="12" y="24" width="1" height="1"/>
<rect x="14" y="24" width="1" height="1"/>
<rect x="15" y="24" width="1" height="1"/>
<rect x="18" y="24" width="1" height="1"/>
<rect x="19" y="24" width="1" height="1"/>
<rect x="20" y="24" width="1" height="1"/>
<rect x="21" y="24" width="1" height="1"/>
<rect x="22" y="24" width="1" height="1"/>
<rect x="23" y="24" width="1" height="1"/>
<rect x="24" y="24" width="1" height="1"/>
</svg>
